<?xml version="1.0" encoding="utf-8"?>

<!-- License Agreement at http://iconmonstr.com/license/ -->

<!DOCTYPE svg PUBLIC "-//W3C//DTD SVG 1.1//EN" "http://www.w3.org/Graphics/SVG/1.1/DTD/svg11.dtd">
<svg version="1.1" xmlns="http://www.w3.org/2000/svg" xmlns:xlink="http://www.w3.org/1999/xlink" x="0px" y="0px"
	 width="512px" height="512px" viewBox="0 0 512 512" enable-background="new 0 0 512 512" xml:space="preserve">
<path id="font-icon" fill="#ffffff" d="M423.368,50h-0.023H88.632v92.549h35.289c0-19.659,15.938-35.597,35.598-35.597h55.938v284.451
	c0,19.659-15.938,35.597-35.598,35.597h-12.258v35h175.596v-35H332.7c-19.658,0-35.596-15.938-35.596-35.597V106.952h55.645
	c19.658,0,35.596,15.938,35.596,35.597h35L423.368,50z"/>
</svg>
